h2 fecundity analysis
…
Check high and low predicted eggs

M %>% 
  select(cameraid, predicted_count_linear) %>% 
  arrange(desc(predicted_count_linear))

## # A tibble: 3,768 x 2
##    cameraid     predicted_count_linear
##    <chr>                         <dbl>
##  1 IMG_2198.JPG                  1556.
##  2 IMG_3756.JPG                  1510.
##  3 IMG_2841.JPG                  1506.
##  4 IMG_1880.JPG                  1493.
##  5 IMG_2186.JPG                  1479.
##  6 IMG_2813.JPG                  1478.
##  7 IMG_2807.JPG                  1477.
##  8 IMG_2815.JPG                  1445.
##  9 IMG_2791.JPG                  1443.
## 10 IMG_2781.JPG                  1437.
## # ... with 3,758 more rows

M %>% 
  select(cameraid, predicted_count_linear) %>% 
  arrange(predicted_count_linear)

## # A tibble: 3,768 x 2
##    cameraid     predicted_count_linear
##    <chr>                         <dbl>
##  1 IMG_5615.JPG                  -143.
##  2 IMG_5610.JPG                  -135.
##  3 IMG_4209.JPG                  -134.
##  4 IMG_2898.JPG                  -131.
##  5 IMG_4198.JPG                  -123.
##  6 IMG_5138.JPG                  -120.
##  7 IMG_5379.JPG                  -119.
##  8 IMG_5519.JPG                  -118.
##  9 IMG_4710.JPG                  -115.
## 10 IMG_5051.JPG                  -114.
## # ... with 3,758 more rows
…
